Segunda Entrega Series de Tiempo
…
tbl_desempleo<-as_tibble(tbl_ts_desempleo)
tbl_desempleo$index<-as.Date(tbl_desempleo$index)
tbl_desempleo

# A tibble: 251 × 2
   index          value
   <date>         <dbl>
 1 2001-02-01  0.0108  
 2 2001-03-01 -0.0224  
 3 2001-04-01 -0.0185  
 4 2001-05-01 -0.00110 
 5 2001-06-01  0.0153  
 6 2001-07-01 -0.000340
 7 2001-08-01 -0.00637 
 8 2001-09-01 -0.0113  
 9 2001-10-01  0.000907
10 2001-11-01 -0.0104  
# … with 241 more rows
…
Luego analizamos los retardos de nuestra serie diferenciada para detectar relaciones no lineales dentro de simisma

ts_lags(ts_diffmetro, lags = 1:15)

Detección de ciclos

Ahora buscamos detectar posibles ciclos de nuestras serie a partir de las siguientes graficas

tbl_ts_metro<- as_tsibble(ts_diffmetro)
tbl_ts_metro<-as_tibble(tbl_ts_metro)
tbl_ts_metro$index<-as.Date(tbl_ts_metro$index)
tbl_ts_metro

# A tibble: 739 × 2
   index        value
   <date>       <dbl>
 1 2021-01-02  178.  
 2 2021-01-02  226.  
 3 2021-01-03  380.  
 4 2021-01-05   12.6 
 5 2021-01-06  -11.1 
 6 2021-01-06    6.46
 7 2021-01-07    5.48
 8 2021-01-09 -447.  
 9 2021-01-10 -250.  
10 2021-01-10   36.1 
# … with 729 more rows
…
